{
    "bold_folder_labels": true,
    "caret_style": "phase",
    "color_scheme": "Packages/Theme - Flatland/Flatland Dark.tmTheme",
    "detect_indentation": false,
    "enable_tab_scrolling": false,
    "flatland_square_tabs": true,
    "font_face": "Hermit",
    "font_size": 10,
    "highlight_line": true,
    "highlight_modified_tabs": true,
    "ignored_packages": ["Vintage"],
    "line_padding_bottom": 1,
    "line_padding_top": 1,
    "overlay_scroll_bars": "enabled",
    "rulers": [80, 120],
    "show_tab_close_buttons": false,
    "tab_size": 4,
    "theme": "Flatland Dark.sublime-theme",
    "translate_tabs_to_spaces": true,
    "word_wrap": false
}
